task3/sigdelay.vcd
$version Generated by VerilatedVcd $end
$date Wed Nov  2 23:55:55 2022 $end
$timescale 1ps $end

 $scope module TOP $end
  $var wire  1 # clk $end
  $var wire  8 ) delayed_signal [7:0] $end
  $var wire  8 ( mic_signal [7:0] $end
  $var wire  8 ' offset [7:0] $end
  $var wire  1 & rd $end
  $var wire  1 $ rst $end
  $var wire  1 % wr $end
  $scope module sigdelay $end
   $var wire 32 + A_WIDTH [31:0] $end
   $var wire 32 + D_WIDTH [31:0] $end
   $var wire  8 * address [7:0] $end
   $var wire  1 # clk $end
   $var wire  8 ) delayed_signal [7:0] $end
   $var wire  8 ( mic_signal [7:0] $end
   $var wire  8 ' offset [7:0] $end
   $var wire  1 & rd $end
   $var wire  1 $ rst $end
   $var wire  1 % wr $end
   $scope module addrCounter $end
    $var wire 32 + WIDTH [31:0] $end
    $var wire  1 # clk $end
    $var wire  8 * count [7:0] $end
    $var wire  1 & en $end
    $var wire  8 ' incr [7:0] $end
    $var wire  1 $ rst $end
   $upscope $end
   $scope module audioRam $end
    $var wire 32 + ADDRESS_WIDTH [31:0] $end
    $var wire 32 + DATA_WIDTH [31:0] $end
    $var wire  1 # clk $end
    $var wire  8 ( din [7:0] $end
    $var wire  8 ) dout [7:0] $end
    $var wire  8 ' rd_addr [7:0] $end
    $var wire  1 & rd_en $end
    $var wire  8 * wr_addr [7:0] $end
    $var wire  1 % wr_en $end
   $upscope $end
  $upscope $end
 $upscope $end
$enddefinitions $end


#0
1#
0$
1%
1&
b01000000 '
b00000000 (
b00000000 )
b00000000 *
b00000000000000000000000000001000 +
#1
0#
#2
1#
b01000111 '
b01101100 (
b01000001 *
#3
0#
#4
1#
b01101111 (
b10001001 *
#5
0#
#6
1#
b01101011 (
b11010001 *
#7
0#
#8
1#
b00011001 *
#9
0#
#10
1#
b01100001 *
#11
0#
#12
1#
b10101001 *
#13
0#
#14
1#
b11110001 *
#15
0#
#16
1#
b01101000 (
b00111001 *
#17
0#
#18
1#
b01101010 (
b10000001 *
#19
0#
#20
1#
b01101011 (
b11001001 *
#21
0#
#22
1#
b00010001 *
#23
0#
#24
1#
b01101000 (
b01011001 *
#25
0#
#26
1#
b10100001 *
#27
0#
#28
1#
b01101001 (
b11101001 *
#29
0#
#30
1#
b00110001 *
#31
0#
#32
1#
b01101000 (
b01111001 *
#33
0#
#34
1#
b11000001 *
#35
0#
#36
1#
b01100111 (
b00001001 *
#37
0#
#38
1#
b01101010 (
b01010001 *
#39
0#
#40
1#
b01100111 (
b10011001 *
#41
0#
#42
1#
b01101001 (
b11100001 *
#43
0#
#44
1#
b01101010 (
b00101001 *
#45
0#
#46
1#
b01100110 (
b01110001 *
#47
0#
#48
1#
b01101010 (
b10111001 *
#49
0#
#50
1#
b00000001 *
#51
0#
#52
1#
b01001001 *
#53
0#
#54
1#
b10010001 *
#55
0#
#56
1#
b11011001 *
#57
0#
#58
1#
b01101011 (
b00100001 *
#59
0#
#60
1#
b01101001 *
#61
0#
#62
1#
b01101010 (
b10110001 *
#63
0#
#64
1#
b11111001 *
#65
0#
#66
1#
b01101011 (
b01000001 *
#67
0#
#68
1#
b01101100 (
b10001001 *
#69
0#
#70
1#
b01101110 (
b11010001 *
#71
0#
#72
1#
b01101001 (
b00011001 *
#73
0#
#74
1#
b01100001 *
#75
0#
#76
1#
b01101010 (
b10101001 *
#77
0#
#78
1#
b01101011 (
b11110001 *
#79
0#
#80
1#
b01101101 (
b00111001 *
#81
0#
#82
1#
b01101100 (
b10000001 *
#83
0#
#84
1#
b01101110 (
b11001001 *
#85
0#
#86
1#
b01101101 (
b00010001 *
#87
0#
#88
1#
b01101011 (
b01011001 *
#89
0#
#90
1#
b01101110 (
b10100001 *
#91
0#
#92
1#
b01101100 (
b11101001 *
#93
0#
#94
1#
b01101101 (
b00110001 *
#95
0#
#96
1#
b01101100 (
b01111001 *
#97
0#
#98
1#
b01001000 '
b01101011 (
b11000001 *
#99
0#
#100
1#
b01001001 '
b01101101 (
b00001010 *
#101
0#
#102
1#
b01101100 (
b01101010 )
b01010100 *
#103
0#
#104
1#
b01101000 (
b10011110 *
#105
0#
#106
1#
b01101011 (
b11101000 *
#107
0#
#108
1#
b01101001 (
b00110010 *
#109
0#
#110
1#
b01101010 (
b01111100 *
#111
0#
#112
1#
b01101000 (
b11000110 *
#113
0#
#114
1#
b01101010 (
b00010000 *
#115
0#
#116
1#
b01001010 '
b01011010 *
#117
0#
#118
1#
b01101000 (
b00000000 )
b10100101 *
#119
0#
#120
1#
b01001011 '
b01101001 (
b11110000 *
#121
0#
#122
1#
b00111100 *
#123
0#
#124
1#
b01100111 (
b10001000 *
#125
0#
#126
1#
b01101000 (
b11010100 *
#127
0#
#128
1#
b01101010 (
b00100000 *
#129
0#
#130
1#
b01101001 (
b01101100 *
#131
0#
#132
1#
b10111000 *
#133
0#
#134
1#
b01101010 (
b00000100 *
#135
0#
#136
1#
b01001010 '
b01101011 (
b01010000 *
#137
0#
#138
1#
b01001001 '
b01101000 (
b10011011 *
#139
0#
#140
1#
b01001000 '
b01101010 )
b11100101 *
#141
0#
#142
1#
b01000111 '
b01101001 (
b00000000 )
b00101110 *
#143
0#
#144
1#
b01000110 '
b01100101 (
b01110110 *
#145
0#
#146
1#
b01101001 (
b10111101 *
#147
0#
#148
1#
b01101010 (
b00000100 *
#149
0#
#150
1#
b01101001 (
b01001011 *
#151
0#
#152
1#
b01100110 (
b10010010 *
#153
0#
#154
1#
b01101011 (
b11011001 *
#155
0#
#156
1#
b00100000 *
#157
0#
#158
1#
b01000111 '
b01101001 (
b01100111 *
#159
0#
#160
1#
b01001000 '
b01101100 (
b10101111 *
#161
0#
#162
1#
b01101011 (
b11111000 *
#163
0#
#164
1#
b01101100 (
b01000001 *
#165
0#
#166
1#
b01101101 (
b10001010 *
#167
0#
#168
1#
b01101011 (
b11010011 *
#169
0#
#170
1#
b01101100 (
b00011100 *
#171
0#
#172
1#
b01101111 (
b01100101 *
#173
0#
#174
1#
b01000111 '
b01101110 (
b10101110 *
#175
0#
#176
1#
b01000110 '
b01101111 (
b11110110 *
#177
0#
#178
1#
b01000101 '
b01101110 (
b00111101 *
#179
0#
#180
1#
b01000100 '
b01101111 (
b10000011 *
#181
0#
#182
1#
b01000011 '
b01101110 (
b11001000 *
#183
0#
#184
1#
b01110000 (
b00001100 *
#185
0#
#186
1#
b01000010 '
b01101110 (
b01010000 *
#187
0#
#188
1#
b10010011 *
#189
0#
#190
1#
b01101111 (
b11010110 *
#191
0#
#192
1#
b01101110 (
b00011001 *
#193
0#
#194
1#
b01110000 (
b01011100 *
#195
0#
#196
1#
b01101011 (
b10011111 *
#197
0#
#198
1#
b01101110 (
b11100010 *
#199
0#
#200
1#
b01101011 (
b00100101 *
#201
0#
#202
1#
b01000011 '
b01101100 (
b01101000 *
#203
0#
#204
1#
b01000101 '
b10101100 *
#205
0#
#206
1#
b01101011 (
b11110010 *
#207
0#
#208
1#
b01101100 (
b00111000 *
#209
0#
#210
1#
b01101001 (
b01111110 *
#211
0#
#212
1#
b11000100 *
#213
0#
#214
1#
b00001010 *
#215
0#
#216
1#
b01101000 (
b01010000 *
#217
0#
#218
1#
b01101010 (
b10010110 *
#219
0#
#220
1#
b01101000 (
b11011100 *
#221
0#
#222
1#
b00100010 *
#223
0#
#224
1#
b01101010 (
b01101000 *
#225
0#
#226
1#
b01100111 (
b10101110 *
#227
0#
#228
1#
b01100110 (
b11110100 *
#229
0#
#230
1#
b01101001 (
b00111010 *
#231
0#
#232
1#
b01100110 (
b10000000 *
#233
0#
#234
1#
b01101010 (
b11000110 *
#235
0#
#236
1#
b00001100 *
#237
0#
#238
1#
b01101001 (
b01010010 *
#239
0#
#240
1#
b01101011 (
b10011000 *
#241
0#
#242
1#
b01101100 (
b11011110 *
#243
0#
#244
1#
b01101011 (
b00100100 *
#245
0#
#246
1#
b01101100 (
b01101010 *
#247
0#
#248
1#
b10110000 *
#249
0#
#250
1#
b11110110 *
#251
0#
#252
1#
b01101010 (
b00111100 *
#253
0#
#254
1#
b01101101 (
b10000010 *
#255
0#
#256
1#
b01101011 (
b11001000 *
#257
0#
#258
1#
b01101001 (
b00001110 *
#259
0#
#260
1#
b01101010 (
b01010100 *
#261
0#
#262
1#
b01101011 (
b10011010 *
#263
0#
#264
1#
b01101010 (
b11100000 *
#265
0#
#266
1#
b01101101 (
b00100110 *
#267
0#
#268
1#
b01101010 (
b01101100 *
#269
0#
#270
1#
b01101100 (
b10110010 *
#271
0#
#272
1#
b01101010 (
b11111000 *
#273
0#
#274
1#
b01101100 (
b00111110 *
#275
0#
#276
1#
b10000100 *
#277
0#
#278
1#
b01101000 (
b11001010 *
#279
0#
#280
1#
b01101011 (
b00010000 *
#281
0#
#282
1#
b01101101 (
b01010110 *
#283
0#
#284
1#
b01101011 (
b10011100 *
#285
0#
#286
1#
b01101110 (
b11100010 *
#287
0#
#288
1#
b01101101 (
b00101000 *
#289
0#
#290
1#
b01101100 (
b01101110 *
#291
0#
#292
1#
b10110100 *
#293
0#
#294
1#
b11111010 *
#295
0#
#296
1#
b01101011 (
b01000000 *
#297
0#
#298
1#
b01101100 (
b10000110 *
#299
0#
#300
1#
b01101110 (
b11001100 *
#301
0#
#302
1#
b01101100 (
b00010010 *
#303
0#
#304
1#
b01101101 (
b01011000 *
#305
0#
#306
1#
b01101100 (
b10011110 *
#307
0#
#308
1#
b01101101 (
b11100100 *
#309
0#
#310
1#
b00101010 *
#311
0#
#312
1#
b01101110 (
b01110000 *
#313
0#
#314
1#
b01101101 (
b10110110 *
#315
0#
#316
1#
b01101011 (
b11111100 *
#317
0#
#318
1#
b01000100 '
b01000010 *
#319
0#
#320
1#
b01000011 '
b01101001 (
b10000111 *
#321
0#
#322
1#
b11001011 *
#323
0#
#324
1#
b01000010 '
b01101010 (
b00001111 *
#325
0#
#326
1#
b01101011 (
b01101011 )
b01010010 *
#327
0#
#328
1#
b01000001 '
b01101010 (
b10010101 *
#329
0#
#330
1#
b01101001 (
b01101100 )
b11010111 *
#331
0#
#332
1#
b01000000 '
b01101100 (
b00011001 *
#333
0#
#334
1#
b01101001 (
b01101011 )
b01011010 *
#335
0#
#336
1#
b00111111 '
b01101000 (
b10011011 *
#337
0#
#338
1#
b01101010 (
b00000000 )
b11011011 *
#339
0#
#340
1#
b00111110 '
b01101011 (
b00011011 *
#341
0#
#342
1#
b01101010 (
b01101100 )
b01011010 *
#343
0#
#344
1#
b00111101 '
b01101000 (
b10011001 *
#345
0#
#346
1#
b01101010 (
b01101110 )
b11010111 *
#347
0#
#348
1#
b00010101 *
#349
0#
#350
1#
b01101011 (
b01010011 *
#351
0#
#352
1#
b10010001 *
#353
0#
#354
1#
b11001111 *
#355
0#
#356
1#
b01101010 (
b00001101 *
#357
0#
#358
1#
b01101011 (
b01001011 *
#359
0#
#360
1#
b10001001 *
#361
0#
#362
1#
b11000111 *
#363
0#
#364
1#
b00000101 *
#365
0#
#366
1#
b01101010 (
b01000011 *
#367
0#
#368
1#
b01101011 (
b10000001 *
#369
0#
#370
1#
b10111111 *
#371
0#
#372
1#
b01101100 (
b11111101 *
#373
0#
#374
1#
b01101010 (
b00111011 *
#375
0#
#376
1#
b01101110 (
b01111001 *
#377
0#
#378
1#
b01101011 (
b10110111 *
#379
0#
#380
1#
b01101010 (
b11110101 *
#381
0#
#382
1#
b00110011 *
#383
0#
#384
1#
b01101100 (
b01110001 *
#385
0#
#386
1#
b00111100 '
b01101000 (
b10101111 *
#387
0#
#388
1#
b01100111 (
b01101010 )
b11101100 *
#389
0#
#390
1#
b00111011 '
b01101000 (
b00101001 *
#391
0#
#392
1#
b01101100 (
b01100101 *
#393
0#
#394
1#
b01101010 (
b10100001 *
#395
0#
#396
1#
b01101100 (
b11011101 *
#397
0#
#398
1#
b00111010 '
b01101001 (
b00011001 *
#399
0#
#400
1#
b01101001 )
b01010100 *
#401
0#
#402
1#
b10001111 *
#403
0#
#404
1#
b11001010 *
#405
0#
#406
1#
b00111001 '
b00000101 *
#407
0#
#408
1#
b01101010 (
b01101101 )
b00111111 *
#409
0#
#410
1#
b01100110 (
b01111001 *
#411
0#
#412
1#
b01100111 (
b10110011 *
#413
0#
#414
1#
b00111000 '
b01101000 (
b11101101 *
#415
0#
#416
1#
b01100111 (
b01101100 )
b00100110 *
#417
0#
#418
1#
b01011111 *
#419
0#
#420
1#
b01101000 (
b10011000 *
#421
0#
#422
1#
b11010001 *
#423
0#
#424
1#
b01100111 (
b00001010 *
#425
0#
#426
1#
b01000011 *
#427
0#
#428
1#
b00110111 '
b01100110 (
b01111100 *
#429
0#
#430
1#
b01101001 (
b00000000 )
b10110100 *
#431
0#
#432
1#
b01101000 (
b11101100 *
#433
0#
#434
1#
b00100100 *
#435
0#
#436
1#
b00110110 '
b01101001 (
b01011100 *
#437
0#
#438
1#
b01100111 (
b10010011 *
#439
0#
#440
1#
b01101010 (
b11001010 *
#441
0#
#442
1#
b01101011 (
b00000001 *
#443
0#
#444
1#
b01100111 (
b00111000 *
#445
0#
#446
1#
b01101000 (
b01101111 *
#447
0#
#448
1#
b01101101 (
b10100110 *
#449
0#
#450
1#
b01101100 (
b11011101 *
#451
0#
#452
1#
b01101011 (
b00010100 *
#453
0#
#454
1#
b01100110 (
b01001011 *
#455
0#
#456
1#
b01100111 (
b10000010 *
#457
0#
#458
1#
b01101000 (
b10111001 *
#459
0#
#460
1#
b01101001 (
b11110000 *
#461
0#
#462
1#
b00100111 *
#463
0#
#464
1#
b00110111 '
b01011110 *
#465
0#
#466
1#
b10010110 *
#467
0#
#468
1#
b01101000 (
b11001110 *
#469
0#
#470
1#
b00000110 *
#471
0#
#472
1#
b00111000 '
b01101001 (
b00111110 *
#473
0#
#474
1#
b01100110 (
b01100111 )
b01110111 *
#475
0#
#476
1#
b00111001 '
b01100111 (
b10110000 *
#477
0#
#478
1#
b00111100 '
b01101101 )
b11101010 *
#479
0#
#480
1#
b01100110 (
b01101010 )
b00100111 *
#481
0#
#482
1#
b01100111 (
b01100100 *
#483
0#
#484
1#
b00111101 '
b01100110 (
b10100001 *
#485
0#
#486
1#
b01101110 )
b11011111 *
#487
0#
#488
1#
b01101010 (
b00011101 *
#489
0#
#490
1#
b01101000 (
b01011011 *
#491
0#
#492
1#
b10011001 *
#493
0#
#494
1#
b01100111 (
b11010111 *
#495
0#
#496
1#
b01101000 (
b00010101 *
#497
0#
#498
1#
b01101001 (
b01010011 *
#499
0#
#500
1#
b01100110 (
b10010001 *
#501
0#
#502
1#
b01101001 (
b11001111 *
#503
0#
#504
1#
b01101010 (
b00001101 *
#505
0#
#506
1#
b01101000 (
b01001011 *
#507
0#
#508
1#
b10001001 *
#509
0#
#510
1#
b01100111 (
b11000111 *
#511
0#
#512
1#
b00000101 *
#513
0#
#514
1#
b01101000 (
b01000011 *
#515
0#
#516
1#
b10000001 *
#517
0#
#518
1#
b01100101 (
b10111111 *
#519
0#
#520
1#
b00111100 '
b01101010 (
b11111101 *
#521
0#
#522
1#
b00111011 '
b01101000 (
b01101010 )
b00111010 *
#523
0#
#524
1#
b00111010 '
b01110110 *
#525
0#
#526
1#
b00111001 '
b01101000 )
b10110001 *
#527
0#
#528
1#
b00110111 '
b01100110 (
b01101101 )
b11101011 *
#529
0#
#530
1#
b00110110 '
b01101001 (
b00000000 )
b00100011 *
#531
0#
#532
1#
b00110101 '
b01101000 (
b01011010 *
#533
0#
#534
1#
b00110100 '
b01101010 (
b10010000 *
#535
0#
#536
1#
b01101011 (
b11000101 *
#537
0#
#538
1#
b01101111 (
b11111010 *
#539
0#
#540
1#
b00110011 '
b01101011 (
b00101111 *
#541
0#
#542
1#
b01101110 (
b01101010 )
b01100011 *
#543
0#
#544
1#
b01101100 (
b10010111 *
#545
0#
#546
1#
b01101011 (
b11001011 *
#547
0#
#548
1#
b00110010 '
b01101101 (
b11111111 *
#549
0#
#550
1#
b01101011 (
b01101001 )
b00110010 *
#551
0#
#552
1#
b00110001 '
b01101110 (
b01100101 *
#553
0#
#554
1#
b01101111 (
b01101101 )
b10010111 *
#555
0#
#556
1#
b00110000 '
b01110010 (
b11001001 *
#557
0#
#558
1#
b01110000 (
b00000000 )
b11111010 *
#559
0#
#560
1#
b01101110 (
b00101011 *
#561
0#
#562
1#
b01101101 (
b01011100 *
#563
0#
#564
1#
b10001101 *
#565
0#
#566
1#
b01101111 (
b10111110 *
#567
0#
#568
1#
b11101111 *
#569
0#
#570
1#
b01101110 (
b00100000 *
#571
0#
#572
1#
b01010001 *
#573
0#
#574
1#
b01101011 (
b10000010 *
#575
0#
#576
1#
b10110011 *
#577
0#
#578
1#
b01101100 (
b11100100 *
#579
0#
#580
1#
b00010101 *
#581
0#
#582
1#
b01000110 *
#583
0#
#584
1#
b01101101 (
b01110111 *
#585
0#
#586
1#
b01101011 (
b10101000 *
#587
0#
#588
1#
b01101010 (
b11011001 *
#589
0#
#590
1#
b01101001 (
b00001010 *
#591
0#
#592
1#
b00110001 '
b00111011 *
#593
0#
#594
1#
b01101101 (
b01101101 )
b01101101 *
#595
0#
#596
1#
b01101010 (
b10011111 *
#597
0#
#598
1#
b01101011 (
b11010001 *
#599
0#
#600
1#
b01101010 (
b00000011 *
#601
0#
#602
1#
b01101001 (
b00110101 *
#603
0#
#604
1#
b01100111 *
#605
0#
#606
1#
b10011001 *
#607
0#
#608
1#
b01101000 (
b11001011 *
#609
0#
#610
1#
b00110010 '
b01101010 (
b11111101 *
#611
0#
#612
1#
b01101011 )
b00110000 *
#613
0#
#614
1#
b01100110 (
b01100011 *
#615
0#
#616
1#
b01101001 (
b10010110 *
#617
0#
#618
1#
b01101000 (
b11001001 *
#619
0#
#620
1#
b00110001 '
b11111100 *
#621
0#
#622
1#
b00101111 '
b01101001 (
b01101101 )
b00101110 *
#623
0#
#624
1#
b00101110 '
b01101000 (
b01101011 )
b01011110 *
#625
0#
#626
1#
b01101010 (
b01101001 )
b10001101 *
#627
0#
#628
1#
b00101101 '
b01101001 (
b10111100 *
#629
0#
#630
1#
b01101011 (
b00000000 )
b11101010 *
#631
0#
#632
1#
b00101100 '
b01101001 (
b00011000 *
#633
0#
#634
1#
b00101011 '
b01101011 (
b01000101 *
#635
0#
#636
1#
b00101010 '
b01101010 (
b01101110 )
b01110001 *
#637
0#
#638
1#
b00101000 '
b01101000 (
b01101101 )
b10011100 *
#639
0#
#640
1#
b01101010 (
b11000101 *
#641
0#
#642
1#
b11101110 *
#643
0#
#644
1#
b01100111 (
b00010111 *
#645
0#
#646
1#
b01101011 (
b01000000 *
#647
0#
#648
1#
b01101001 *
#649
0#
#650
1#
b01101010 (
b10010010 *
#651
0#
#652
1#
b01101011 (
b10111011 *
#653
0#
#654
1#
b11100100 *
#655
0#
#656
1#
b00001101 *
#657
0#
#658
1#
b00110110 *
#659
0#
#660
1#
b01101010 (
b01011111 *
#661
0#
#662
1#
b01101100 (
b10001000 *
#663
0#
#664
1#
b00100111 '
b01101011 (
b10110001 *
#665
0#
#666
1#
b00100110 '
b01100110 )
b11011001 *
#667
0#
#668
1#
b00100100 '
b01100111 )
b00000000 *
#669
0#
#670
1#
b01101000 )
b00100101 *
#671
0#
#672
1#
b01001010 *
#673
0#
#674
1#
b01101110 (
b01101111 *
#675
0#
#676
1#
b00100011 '
b01101011 (
b10010100 *
#677
0#
#678
1#
b01101110 (
b01101001 )
b10111000 *
#679
0#
#680
1#
b00100010 '
b01101001 (
b11011100 *
#681
0#
#682
1#
b01101010 (
b01101000 )
b11111111 *
#683
0#
#684
1#
b00100001 '
b00100010 *
#685
0#
#686
1#
b01101011 )
b01000100 *
#687
0#
#688
1#
b00100000 '
b01101000 (
b01100110 *
#689
0#
#690
1#
b00011111 '
b01101010 (
b01101110 )
b10000111 *
#691
0#
#692
1#
b00011110 '
b01101011 (
b00000000 )
b10100111 *
#693
0#
#694
1#
b01101001 (
b11000110 *
#695
0#
#696
1#
b01101011 (
b11100101 *
#697
0#
#698
1#
b00000100 *
#699
0#
#700
1#
b01101000 (
b00100011 *
#701
0#
#702
1#
b01100111 (
b01000010 *
#703
0#
#704
1#
b01101000 (
b01100001 *
#705
0#
#706
1#
b10000000 *
#707
0#
#708
1#
b01101010 (
b10011111 *
#709
0#
#710
1#
b10111110 *
#711
0#
#712
1#
b01101100 (
b11011101 *
#713
0#
#714
1#
b01101101 (
b11111100 *
#715
0#
#716
1#
b00011011 *
#717
0#
#718
1#
b01101011 (
b00111010 *
#719
0#
#720
1#
b01101100 (
b01011001 *
#721
0#
#722
1#
b01111000 *
#723
0#
#724
1#
b01101011 (
b10010111 *
#725
0#
#726
1#
b01101100 (
b10110110 *
#727
0#
#728
1#
b01101110 (
b11010101 *
#729
0#
#730
1#
b01101101 (
b11110100 *
#731
0#
#732
1#
b01101100 (
b00010011 *
#733
0#
#734
1#
b01101101 (
b00110010 *
#735
0#
#736
1#
b01010001 *
#737
0#
#738
1#
b01101110 (
b01110000 *
#739
0#
#740
1#
b01101010 (
b10001111 *
#741
0#
#742
1#
b01101111 (
b10101110 *
#743
0#
#744
1#
b01101110 (
b11001101 *
#745
0#
#746
1#
b01101100 (
b11101100 *
#747
0#
#748
1#
b01101101 (
b00001011 *
#749
0#
#750
1#
b01110000 (
b00101010 *
#751
0#
#752
1#
b01001001 *
#753
0#
#754
1#
b01101110 (
b01101000 *
#755
0#
#756
1#
b10000111 *
#757
0#
#758
1#
b10100110 *
#759
0#
#760
1#
b01101100 (
b11000101 *
#761
0#
#762
1#
b01101101 (
b11100100 *
#763
0#
#764
1#
b01101100 (
b00000011 *
#765
0#
#766
1#
b01101010 (
b00100010 *
#767
0#
#768
1#
b01000001 *
#769
0#
#770
1#
b01100111 (
b01100000 *
#771
0#
#772
1#
b01101001 (
b01111111 *
#773
0#
#774
1#
b01101000 (
b10011110 *
#775
0#
#776
1#
b01101001 (
b10111101 *
#777
0#
#778
1#
b11011100 *
#779
0#
#780
1#
b01100111 (
b11111011 *
#781
0#
#782
1#
b01101001 (
b00011010 *
#783
0#
#784
1#
b01101000 (
b00111001 *
#785
0#
#786
1#
b00011101 '
b01101001 (
b01011000 *
#787
0#
#788
1#
b01101010 )
b01110110 *
#789
0#
#790
1#
b00011100 '
b10010100 *
#791
0#
#792
1#
b01100100 (
b01101100 )
b10110001 *
#793
0#
#794
1#
b00011011 '
b01100111 (
b11001110 *
#795
0#
#796
1#
b00011010 '
b01100110 (
b01101101 )
b11101010 *
#797
0#
#798
1#
b01101000 (
b01101001 )
b00000101 *
#799
0#
#800
1#
b01100110 (
b00100000 *
#801
0#
#802
1#
b00111011 *
#803
0#
#804
1#
b01101000 (
b01010110 *
#805
0#
#806
1#
b01101011 (
b01110001 *
#807
0#
#808
1#
b01100111 (
b10001100 *
#809
0#
#810
1#
b01100101 (
b10100111 *
#811
0#
#812
1#
b01100100 (
b11000010 *
#813
0#
#814
1#
b01100010 (
b11011101 *
#815
0#
#816
1#
b00011011 '
b01100011 (
b11111000 *
#817
0#
#818
1#
b01100110 (
b01101101 )
b00010100 *
#819
0#
#820
1#
b01100111 (
b00110000 *
#821
0#
#822
1#
b01101100 (
b01001100 *
#823
0#
#824
1#
b00011100 '
b01101111 (
b01101000 *
#825
0#
#826
1#
b01110000 (
b01101100 )
b10000101 *
#827
0#
#828
1#
b01110001 (
b10100010 *
#829
0#
#830
1#
b01101111 (
b10111111 *
#831
0#
#832
1#
b01101101 (
b11011100 *
#833
0#
#834
1#
b01101100 (
b11111001 *
#835
0#
#836
1#
b00011101 '
b01100111 (
b00010110 *
#837
0#
#838
1#
b00011110 '
b01100110 (
b01101010 )
b00110100 *
#839
0#
#840
1#
b00011111 '
b01101001 (
b00000000 )
b01010011 *
#841
0#
#842
1#
b01100011 (
b01110011 *
#843
0#
#844
1#
b01100100 (
b10010011 *
#845
0#
#846
1#
b10110011 *
#847
0#
#848
1#
b01101000 (
b11010011 *
#849
0#
#850
1#
b00100000 '
b01100110 (
b11110011 *
#851
0#
#852
1#
b00100010 '
b01101000 (
b01100110 )
b00010100 *
#853
0#
#854
1#
b00100100 '
b01101001 (
b01101010 )
b00110111 *
#855
0#
#856
1#
b00100101 '
b01101100 (
b01101000 )
b01011100 *
#857
0#
#858
1#
b00100110 '
b01101101 (
b01101011 )
b10000010 *
#859
0#
#860
1#
b00100111 '
b01110000 (
b01100111 )
b10101001 *
#861
0#
#862
1#
b00101000 '
b01100110 )
b11010001 *
#863
0#
#864
1#
b00101001 '
b01110001 (
b01101101 )
b11111010 *
#865
0#
#866
1#
b00101010 '
b01110010 (
b01101000 )
b00100100 *
#867
0#
#868
1#
b00101011 '
b01110011 (
b01110000 )
b01001111 *
#869
0#
#870
1#
b01110001 (
b01101110 )
b01111011 *
#871
0#
#872
1#
b00101100 '
b01101011 (
b10100111 *
#873
0#
#874
1#
b01100111 (
b00000000 )
b11010100 *
#875
0#
#876
1#
b00101101 '
b01101011 (
b00000001 *
#877
0#
#878
1#
b00101110 '
b01101100 (
b00101111 *
#879
0#
#880
1#
b00101111 '
b01101010 (
b01101001 )
b01011110 *
#881
0#
#882
1#
b00110000 '
b01100110 (
b01101100 )
b10001110 *
#883
0#
#884
1#
b00110001 '
b01100111 )
b10111111 *
#885
0#
#886
1#
b00110010 '
b01101001 (
b01101101 )
b11110001 *
#887
0#
#888
1#
b00110100 '
b01100111 (
b00100100 *
#889
0#
#890
1#
b00110101 '
b01101011 (
b01100110 )
b01011001 *
#891
0#
#892
1#
b01101001 )
b10001111 *
#893
0#
#894
1#
b00110110 '
b01101110 (
b11000101 *
#895
0#
#896
1#
b00110111 '
b01101011 (
b01101011 )
b11111100 *
#897
0#
#898
1#
b00111000 '
b01101101 (
b01101001 )
b00110100 *
#899
0#
#900
1#
b00111001 '
b01100111 )
b01101101 *
#901
0#
#902
1#
b01101010 (
b01101000 )
b10100111 *
#903
0#
#904
1#
b01101100 (
b11100001 *
#905
0#
#906
1#
b01101111 (
b00011011 *
#907
0#
#908
1#
b01101110 (
b01010101 *
#909
0#
#910
1#
b01101010 (
b10001111 *
#911
0#
#912
1#
b11001001 *
#913
0#
#914
1#
b01101000 (
b00000011 *
#915
0#
#916
1#
b01101010 (
b00111101 *
#917
0#
#918
1#
b01100111 (
b01110111 *
#919
0#
#920
1#
b10110001 *
#921
0#
#922
1#
b00111000 '
b01101001 (
b11101011 *
#923
0#
#924
1#
b00110111 '
b01101011 (
b01100111 )
b00100100 *
#925
0#
#926
1#
b01101100 (
b01101001 )
b01011100 *
#927
0#
#928
1#
b00110110 '
b01110000 (
b10010100 *
#929
0#
#930
1#
b01110011 (
b01101011 )
b11001011 *
#931
0#
#932
1#
b00110101 '
b00000010 *
#933
0#
#934
1#
b00110100 '
b01101001 )
b00111000 *
#935
0#
#936
1#
b01110101 (
b01101101 )
b01101101 *
#937
0#
#938
1#
b00110011 '
b01110001 (
b10100010 *
#939
0#
#940
1#
b01101010 (
b01101010 )
b11010110 *
#941
0#
#942
1#
b00110010 '
b01100111 (
b00001010 *
#943
0#
#944
1#
b01101000 (
b01101101 )
b00111101 *
#945
0#
#946
1#
b00110001 '
b01100001 (
b01110000 *
#947
0#
#948
1#
b10100010 *
#949
0#
#950
1#
b01100000 (
b11010100 *
#951
0#
#952
1#
b01100010 (
b00000110 *
#953
0#
#954
1#
b01100001 (
b00111000 *
#955
0#
#956
1#
b01100000 (
b01101010 *
#957
0#
#958
1#
b01100100 (
b10011100 *
#959
0#
#960
1#
b00110000 '
b01100101 (
b11001110 *
#961
0#
#962
1#
b01100111 (
b01100111 )
b11111111 *
#963
0#
#964
1#
b01101011 (
b00110000 *
#965
0#
#966
1#
b01100001 *
#967
0#
#968
1#
b01101101 (
b01101011 )
b10010010 *
#969
0#
#970
1#
b01101110 (
b11000011 *
#971
0#
#972
1#
b01101100 (
b11110100 *
#973
0#
#974
1#
b01101111 (
b00100101 *
#975
0#
#976
1#
b01101110 (
b01010110 *
#977
0#
#978
1#
b00101111 '
b10000111 *
#979
0#
#980
1#
b01101100 )
b10110111 *
#981
0#
#982
1#
b00101110 '
b01101100 (
b11100111 *
#983
0#
#984
1#
b01100111 (
b01101001 )
b00010110 *
#985
0#
#986
1#
b00101101 '
b01100110 (
b01000101 *
#987
0#
#988
1#
b01100100 (
b00000000 )
b01110011 *
#989
0#
#990
1#
b00101100 '
b01100001 (
b10100001 *
#991
0#
#992
1#
b00101011 '
b11001110 *
#993
0#
#994
1#
b01100110 (
b01101110 )
b11111010 *
#995
0#
#996
1#
b00101010 '
b01101010 (
b00100110 *
#997
0#
#998
1#
b01101000 (
b01110000 )
b01010001 *
#999
0#
#1000
1#
b01101011 (
b01111100 *
#1001
0#
#1002
1#
b00101001 '
b01101010 (
b10100111 *
#1003
0#
#1004
1#
b00101000 '
b01101000 )
b11010001 *
#1005
0#
#1006
1#
b01101011 (
b01101101 )
b11111010 *
#1007
0#
#1008
1#
b00100110 '
b01101100 (
b00100011 *
#1009
0#
#1010
1#
b00100101 '
b01101010 )
b01001010 *
#1011
0#
#1012
1#
b00100100 '
b01100111 (
b01101111 )
b01110000 *
#1013
0#
#1014
1#
b01100100 (
b01101011 )
b10010101 *
#1015
0#
#1016
1#
b00100011 '
b01100011 (
b10111010 *
#1017
0#
#1018
1#
b01101100 )
b11011110 *
#1019
0#
#1020
1#
b00100010 '
b00000010 *
#1021
0#
#1022
1#
b01100100 (
b01101010 )
b00100101 *
#1023
0#
#1024
1#
b00100001 '
b01100111 (
b01001000 *
#1025
0#
#1026
1#
b01101000 (
b01101011 )
b01101010 *
#1027
0#
#1028
1#
b01100111 (
b10001100 *
#1029
0#
#1030
1#
b00100000 '
b01100100 (
b10101110 *
#1031
0#
